…
{: .language-r}

    [1] 1474   22

{: .output}

-   **A table describing the samples**

<!-- -->

    sample_metadata

{: .language-r}

    # A tibble: 22 × 9
       sample     organism       age sex    infection   strain   time tissue     mouse
       <chr>      <chr>        <dbl> <chr>  <chr>       <chr>   <dbl> <chr>      <dbl>
     1 GSM2545336 Mus musculus     8 Female InfluenzaA  C57BL/6     8 Cerebellum    14
     2 GSM2545337 Mus musculus     8 Female NonInfected C57BL/6     0 Cerebellum     9
     3 GSM2545338 Mus musculus     8 Female NonInfected C57BL/6     0 Cerebellum    10
     4 GSM2545339 Mus musculus     8 Female InfluenzaA  C57BL/6     4 Cerebellum    15
     5 GSM2545340 Mus musculus     8 Male   InfluenzaA  C57BL/6     4 Cerebellum    18
     6 GSM2545341 Mus musculus     8 Male   InfluenzaA  C57BL/6     8 Cerebellum     6
     7 GSM2545342 Mus musculus     8 Female InfluenzaA  C57BL/6     8 Cerebellum     5
     8 GSM2545343 Mus musculus     8 Male   NonInfected C57BL/6     0 Cerebellum    11
     9 GSM2545344 Mus musculus     8 Female InfluenzaA  C57BL/6     4 Cerebellum    22
    10 GSM2545345 Mus musculus     8 Male   InfluenzaA  C57BL/6     4 Cerebellum    13
    # … with 12 more rows

{: .output}

-   **A table describing the genes**

<!-- -->

    gene_metadata

{: .language-r}

    # A tibble: 1,474 × 9
       gene    ENTREZID product                                                 ensem…¹ exter…² chrom…³ gene_…⁴ pheno…⁵ hsapi…⁶
       <chr>      <dbl> <chr>                                                   <chr>   <chr>   <chr>   <chr>   <chr>   <chr>  
     1 Asl       109900 argininosuccinate lyase, transcript variant X1          ENSMUS… 251000… 5       protei… abnorm… ASL    
     2 Apod       11815 apolipoprotein D, transcript variant 3                  ENSMUS… <NA>    16      protei… abnorm… APOD   
     3 Cyp2d22    56448 cytochrome P450, family 2, subfamily d, polypeptide 22… ENSMUS… 2D22    15      protei… abnorm… CYP2D6 
     4 Klk6       19144 kallikrein related-peptidase 6, transcript variant 2    ENSMUS… Bssp    7       protei… abnorm… KLK6   
     5 Fcrls      80891 Fc receptor-like S, scavenger receptor, transcript var… ENSMUS… 281043… 3       protei… decrea… FCRL2  
     6 Slc2a4     20528 solute carrier family 2 (facilitated glucose transport… ENSMUS… Glut-4  11      protei… abnorm… SLC2A4 
     7 Exd2       97827 exonuclease 3'-5' domain containing 2                   ENSMUS… 493053… 12      protei… <NA>    EXD2   
     8 Gjc2      118454 gap junction protein, gamma 2, transcript variant 1     ENSMUS… B23038… 11      protei… Purkin… GJC2   
     9 Plp1       18823 proteolipid protein (myelin) 1, transcript variant 1    ENSMUS… DM20    X       protei… abnorm… PLP1   
    10 Gnb4       14696 guanine nucleotide binding protein (G protein), beta 4… ENSMUS… 672045… 3       protei… decrea… GNB4   
    # … with 1,464 more rows, and abbreviated variable names ¹​ensembl_gene_id, ²​external_synonym, ³​chromosome_name,
    #   ⁴​gene_biotype, ⁵​phenotype_description, ⁶​hsapiens_homolog_associated_gene_name
…
